crate density,0.2,policy:,SOFTMAX,training parameter:,20,play parameter: ,1,cooling: ,False,update period: ,100,weight auxiliary rewards: ,9,6,15,4,GRADIENT BOOST learning rate: ,0.1,number of estimators: ,150,depth: ,5,gamma,0.95,learning rate for Q-learning: ,0.1
rewards:,coin collected,160,killed opponent,50,crate destroyed,40,invalid action,-40,wait,-7,placed bomb,-6,moved,-1,killed self,-260,got killed,-260,agent next to crate,70
coins,bombs,crates,kills,invalids,waited,steps,gotkilled,killedself
2,4,3,0,0.025,0.0,40,1,1
0,2,1,0,0.0,0.0,14,1,1
5,13,13,1,0.0,0.007692307692307693,130,0,0
2,6,6,0,0.0,0.0,42,1,0
1,6,6,0,0.18181818181818182,0.06060606060606061,66,1,0
8,14,14,0,0.0,0.01764705882352941,170,0,0
7,14,14,1,0.0,0.022222222222222223,135,0,0
5,11,11,0,0.025210084033613446,0.0,119,0,0
2,5,3,0,0.043478260869565216,0.021739130434782608,46,1,0
2,12,10,1,0.79,0.005,400,0,0
4,6,5,0,0.0,0.0,78,1,1
2,6,5,0,0.0,0.03225806451612903,62,1,1
1,2,1,0,0.0,0.0,16,1,0
5,13,8,0,0.0036363636363636364,0.0,275,0,0
5,14,13,1,0.006896551724137931,0.0,145,0,0
0,1,0,0,0.42857142857142855,0.0,7,1,1
5,13,10,1,0.0070921985815602835,0.03546099290780142,141,1,1
2,6,5,0,0.02127659574468085,0.0425531914893617,47,1,1
1,4,4,0,0.005,0.0,400,0,0
6,16,15,1,0.0,0.016042780748663103,187,1,1
0,2,1,0,0.0,0.0,14,1,1
1,6,5,0,0.0,0.043478260869565216,46,1,0
6,16,15,0,0.04093567251461988,0.005847953216374269,171,0,0
1,2,1,0,0.0,0.0,20,1,1
2,6,4,0,0.0,0.0,66,1,1
1,5,4,0,0.06451612903225806,0.03225806451612903,31,1,1
6,13,12,0,0.0,0.023809523809523808,126,1,1
3,11,10,1,0.08695652173913043,0.006211180124223602,161,0,0
2,6,5,1,0.7876106194690266,0.0,226,1,1
2,5,4,0,0.046511627906976744,0.046511627906976744,43,1,1
8,16,16,1,0.020618556701030927,0.0,388,0,0
0,1,0,0,0.0,0.0,7,1,1
2,4,3,0,0.17307692307692307,0.0,52,1,0
4,7,6,0,0.8025,0.0,400,0,0
5,14,11,1,0.03225806451612903,0.0,186,1,1
6,13,13,1,0.017857142857142856,0.005952380952380952,168,0,0
1,2,1,0,0.058823529411764705,0.0,17,1,1
2,3,3,0,0.45098039215686275,0.0,51,1,0
2,8,7,0,0.7701863354037267,0.012422360248447204,322,1,1
1,5,4,0,0.0,0.0,38,1,0
0,1,0,0,0.0,0.0,7,1,1
1,4,3,0,0.0,0.0,24,1,1
5,14,12,0,0.0,0.006993006993006993,143,0,0
1,5,5,1,0.8225,0.0,400,0,0
3,9,8,1,0.01948051948051948,0.0,154,1,0
0,2,1,0,0.16666666666666666,0.0,12,1,1
2,3,3,0,0.0,0.0,33,1,0
0,1,0,0,0.0,0.0,9,1,1
0,1,0,0,0.0,0.0,7,1,1
1,7,5,0,0.0,0.013513513513513514,74,1,1
4,15,9,0,0.0196078431372549,0.0196078431372549,153,1,0
0,0,0,0,0.0,0.0,8,1,0
2,7,6,0,0.0,0.015151515151515152,66,1,0
3,9,7,0,0.010638297872340425,0.02127659574468085,94,1,1
2,7,7,1,0.8825,0.0,400,0,0
1,4,3,0,0.0,0.05555555555555555,36,1,1
0,4,3,0,0.12987012987012986,0.0,77,1,1
6,16,15,1,0.0,0.013888888888888888,144,1,1
4,6,5,0,0.029411764705882353,0.029411764705882353,68,1,1
3,8,7,1,0.0,0.0,88,1,1
3,14,12,0,0.03333333333333333,0.0,120,1,1
0,1,0,0,0.0,0.0,11,1,1
1,4,3,0,0.0,0.0,30,1,1
3,10,5,0,0.02666666666666667,0.013333333333333334,75,1,0
2,12,7,0,0.0,0.0,90,1,1
1,3,2,0,0.0,0.0,23,1,1
4,9,8,0,0.045454545454545456,0.0,110,1,1
3,14,9,0,0.22330097087378642,0.019417475728155338,206,1,1
8,17,17,1,0.0,0.0,229,0,0
1,5,5,0,0.0,0.0,49,1,0
6,21,19,1,0.0,0.004149377593360996,241,0,0
0,6,5,0,0.24,0.04,50,1,0
1,6,5,0,0.2037037037037037,0.018518518518518517,54,1,1
4,12,10,0,0.02857142857142857,0.005714285714285714,175,1,1
0,2,1,0,0.3870967741935484,0.03225806451612903,31,1,0
