crate density,0.2,policy:,SOFTMAX,training parameter:,20,play parameter: ,1,cooling: ,False,update period: ,500,weight auxiliary rewards: ,6,6,15,2,GRADIENT BOOST learning rate: ,0.1,number of estimators: ,150,depth: ,4,gamma,0.95,learning rate for Q-learning: ,0.5
rewards:,coin collected,160,killed opponent,50,crate destroyed,40,invalid action,-40,wait,-7,placed bomb,-6,moved,-1,killed self,-260,got killed,-260,agent next to crate,70
coins,bombs,crates,kills,invalids,waited,steps,gotkilled,killedself
8,22,22,0,0.0061162079510703364,0.009174311926605505,327,0,0
6,15,15,0,0.005,0.0,400,0,0
7,12,12,0,0.0,0.0,400,0,0
7,28,28,0,0.375,0.0,400,0,0
3,13,13,0,0.0025,0.0025,400,0,0
1,6,5,0,0.021739130434782608,0.06521739130434782,46,1,1
0,1,1,0,0.7375,0.0,400,0,0
7,12,12,0,0.7025,0.0,400,0,0
9,21,21,0,0.0025,0.0475,400,0,0
8,23,23,0,0.010638297872340425,0.0035460992907801418,282,0,0
5,13,13,0,0.0,0.005,400,0,0
9,14,14,0,0.0075,0.0,400,0,0
0,2,2,0,0.0,0.44,400,0,0
6,15,15,0,0.0,0.0175,400,0,0
8,15,15,0,0.0,0.0025,400,0,0
8,20,20,0,0.0,0.009569377990430622,209,0,0
5,18,17,0,0.0,0.005,400,0,0
5,14,14,0,0.0025,0.0,400,0,0
2,5,4,0,0.0,0.0,37,1,1
1,2,1,0,0.0,0.0,16,1,1
8,17,17,0,0.0,0.0,175,0,0
8,28,28,0,0.0,0.013157894736842105,228,0,0
9,22,22,0,0.0,0.0,358,0,0
6,14,13,0,0.008771929824561403,0.0,114,1,1
9,23,23,0,0.0,0.0,185,0,0
6,17,17,0,0.0,0.0075,400,0,0
1,7,6,0,0.0,0.0,51,1,1
0,1,1,0,0.0,0.21,400,0,0
6,14,14,0,0.0,0.005,400,0,0
2,3,3,0,0.0,0.0,400,0,0
0,2,1,0,0.0,0.0,12,1,1
5,9,8,0,0.0,0.006153846153846154,325,1,1
9,24,24,0,0.0,0.0,222,0,0
9,17,17,0,0.18636363636363637,0.004545454545454545,220,0,0
5,11,11,0,0.0,0.0,400,0,0
6,16,15,0,0.0,0.0,132,1,1
8,15,15,0,0.0,0.0,167,0,0
8,17,16,0,0.0,0.0,195,1,1
9,19,19,0,0.0,0.0,188,0,0
8,19,19,0,0.0,0.0025,400,0,0
9,14,14,0,0.0,0.0,400,0,0
8,16,15,0,0.0,0.007633587786259542,131,1,1
8,22,22,0,0.4775,0.0,400,0,0
8,22,22,0,0.0,0.0,199,0,0
2,5,5,0,0.0,0.0,400,0,0
8,20,20,0,0.0,0.009523809523809525,210,0,0
0,1,0,0,0.0,0.0,11,1,1
8,19,19,0,0.0,0.021505376344086023,186,0,0
9,21,21,0,0.0,0.01,200,0,0
9,24,24,0,0.0,0.02092050209205021,239,0,0
2,8,8,0,0.455,0.0,400,0,0
3,7,7,0,0.845,0.0025,400,0,0
0,1,0,0,0.0,0.0,7,1,1
9,21,21,0,0.0,0.005050505050505051,198,0,0
8,20,20,0,0.0,0.015706806282722512,191,0,0
8,16,16,0,0.0,0.0,159,0,0
8,19,19,0,0.06220095693779904,0.009569377990430622,209,0,0
9,19,19,0,0.0,0.0049504950495049506,202,0,0
8,25,25,0,0.0,0.013574660633484163,221,0,0
4,10,9,0,0.0,0.011764705882352941,85,1,1
8,18,18,0,0.0,0.015873015873015872,189,0,0
9,17,17,0,0.0,0.012422360248447204,161,0,0
8,19,19,0,0.0,0.005,400,0,0
8,22,22,0,0.0,0.012690355329949238,394,0,0
8,19,19,0,0.0,0.02197802197802198,182,0,0
8,22,22,0,0.0,0.023809523809523808,210,0,0
8,17,17,0,0.0,0.01764705882352941,170,0,0
8,21,21,0,0.0,0.015873015873015872,189,0,0
8,18,18,0,0.0,0.027624309392265192,181,0,0
8,19,19,0,0.0,0.020833333333333332,192,0,0
8,18,18,0,0.07960199004975124,0.01990049751243781,201,0,0
9,21,21,0,0.0,0.026595744680851064,188,0,0
9,21,21,0,0.0,0.009389671361502348,213,0,0
8,23,23,0,0.004901960784313725,0.024509803921568627,204,0,0
9,24,24,0,0.0,0.024509803921568627,204,0,0crate density,0.2,policy:,SOFTMAX,training parameter:,20,play parameter: ,1,cooling: ,False,update period: ,500,weight auxiliary rewards: ,6,6,15,3,GRADIENT BOOST learning rate: ,0.1,number of estimators: ,150,depth: ,4,gamma,0.95,learning rate for Q-learning: ,0.5
rewards:,coin collected,160,killed opponent,50,crate destroyed,40,invalid action,-40,wait,-7,placed bomb,-6,moved,-1,killed self,-260,got killed,-260,agent next to crate,70
coins,bombs,crates,kills,invalids,waited,steps,gotkilled,killedself
3,11,10,0,0.010526315789473684,0.031578947368421054,95,1,0
6,15,15,0,0.0,0.011299435028248588,177,1,0
5,16,14,0,0.017167381974248927,0.008583690987124463,233,0,0
5,12,10,0,0.02072538860103627,0.010362694300518135,193,0,0
1,3,3,0,0.0,0.0,21,1,0
3,5,4,0,0.0,0.020833333333333332,48,1,1
5,15,13,0,0.0392156862745098,0.00392156862745098,255,1,0
5,17,14,0,0.026455026455026454,0.026455026455026454,189,1,0
6,13,12,0,0.0,0.018518518518518517,108,1,1
7,21,18,0,0.0076045627376425855,0.015209125475285171,263,1,0
3,8,7,0,0.014925373134328358,0.029850746268656716,67,1,1
3,9,9,0,0.012195121951219513,0.024390243902439025,82,1,0
6,13,11,0,0.01834862385321101,0.03669724770642202,109,1,1
4,16,14,0,0.0,0.0070921985815602835,141,1,0
1,4,4,0,0.027777777777777776,0.027777777777777776,36,1,0
8,34,11,0,0.0075,0.0075,400,0,0
4,10,9,0,0.008130081300813009,0.0,123,1,1
6,25,13,0,0.01593625498007968,0.00796812749003984,251,1,1
7,33,13,0,0.005,0.005,400,0,0
4,11,9,0,0.020202020202020204,0.020202020202020204,99,1,1
5,7,5,0,0.0,0.0,63,1,1
5,33,12,0,0.0025,0.0125,400,0,0
1,5,4,0,0.0,0.0,31,1,1
6,19,10,0,0.021645021645021644,0.004329004329004329,231,1,1
3,8,7,0,0.03389830508474576,0.01694915254237288,59,1,1
2,5,4,0,0.0,0.0,41,1,1
3,8,8,0,0.058823529411764705,0.0,68,1,0
4,15,14,0,0.017543859649122806,0.017543859649122806,171,1,1
2,8,6,0,0.2054794520547945,0.0273972602739726,73,1,0
5,24,16,0,0.009478672985781991,0.014218009478672985,211,1,1
2,9,7,0,0.047619047619047616,0.06349206349206349,63,1,1
3,8,4,0,0.041666666666666664,0.041666666666666664,72,1,1
5,16,12,0,0.013422818791946308,0.013422818791946308,149,1,1
7,9,8,0,0.02040816326530612,0.01020408163265306,98,1,0
4,8,7,0,0.011235955056179775,0.011235955056179775,89,1,1
0,1,0,0,0.0,0.0,9,1,1
4,10,10,0,0.042105263157894736,0.010526315789473684,95,1,0
4,7,7,0,0.0547945205479452,0.0,73,1,0
1,4,3,0,0.0,0.034482758620689655,29,1,1
4,8,7,0,0.0,0.0,70,1,1
4,8,6,0,0.011494252873563218,0.0,87,1,1
1,4,4,0,0.0,0.02857142857142857,35,1,0
4,13,11,0,0.1,0.03,100,1,1
2,3,2,0,0.0,0.0,31,1,1
6,44,17,0,0.013368983957219251,0.008021390374331552,374,1,1
2,8,5,0,0.0,0.04918032786885246,61,1,1
2,4,3,0,0.0,0.0,42,1,1
4,17,11,0,0.012195121951219513,0.006097560975609756,164,1,1
7,21,12,0,0.0051813471502590676,0.0051813471502590676,193,1,1
2,7,6,0,0.02040816326530612,0.0,49,1,0
1,4,3,0,0.08571428571428572,0.0,35,1,0
3,5,3,0,0.05,0.025,40,1,1
3,8,7,0,0.0,0.06666666666666667,60,1,1
4,7,6,1,0.0,0.016666666666666666,60,1,1
1,4,3,0,0.0,0.0,28,1,1
6,33,14,0,0.015873015873015872,0.01904761904761905,315,1,1
7,25,11,0,0.01730103806228374,0.02422145328719723,289,1,0
6,21,11,0,0.011299435028248588,0.02824858757062147,177,1,1
1,2,2,0,0.0,0.0,23,1,0
1,4,3,0,0.0,0.11538461538461539,26,1,0
3,6,4,0,0.037037037037037035,0.0,54,1,0
6,21,20,0,0.0,0.006060606060606061,165,0,0
2,12,6,0,0.04878048780487805,0.014634146341463415,205,1,1
1,5,4,0,0.0,0.05128205128205128,39,1,1
5,12,8,0,0.0,0.015873015873015872,126,1,1
6,14,9,0,0.025210084033613446,0.03361344537815126,119,1,1
0,2,1,0,0.0,0.0,12,1,1
3,7,6,0,0.0,0.0,67,1,1
5,11,9,0,0.011111111111111112,0.022222222222222223,90,1,1
2,6,3,0,0.06976744186046512,0.046511627906976744,43,1,1
2,7,6,0,0.01694915254237288,0.00847457627118644,118,1,1
3,10,7,0,0.00847457627118644,0.00847457627118644,118,1,0
2,7,6,0,0.05357142857142857,0.0,56,1,0
6,12,11,0,0.020202020202020204,0.030303030303030304,99,1,1
5,12,11,0,0.01098901098901099,0.02197802197802198,91,1,1
3,6,6,0,0.0,0.0784313725490196,51,1,0
7,19,17,0,0.006211180124223602,0.07453416149068323,161,1,1
5,12,12,0,0.0,0.7575,400,0,0
4,13,10,0,0.019417475728155338,0.019417475728155338,103,1,1
5,13,11,0,0.0,0.12096774193548387,124,1,1
0,3,2,0,0.0,0.10526315789473684,19,1,1
6,16,14,0,0.0025,0.6325,400,0,0
4,9,6,0,0.0375,0.0,80,1,0
3,7,6,0,0.0,0.0,65,1,1
7,14,14,1,0.0,0.7275,400,0,0
3,4,4,0,0.0,0.09090909090909091,33,1,0
6,16,12,0,0.010638297872340425,0.07446808510638298,188,1,1
0,6,5,0,0.0,0.0,132,1,0
4,12,9,0,0.0,0.009708737864077669,103,1,1
5,13,12,0,0.0,0.12403100775193798,129,1,1
2,4,3,0,0.0,0.0,36,1,1
4,8,5,0,0.008928571428571428,0.008928571428571428,112,1,1
1,13,10,0,0.07272727272727272,0.02727272727272727,110,1,1
2,6,5,0,0.0,0.018867924528301886,53,1,1
6,24,13,0,0.012658227848101266,0.008438818565400843,237,1,1
0,3,2,0,0.0,0.10526315789473684,19,1,1
4,11,9,0,0.01282051282051282,0.01282051282051282,78,1,0
6,21,15,0,0.01,0.015,200,1,1
4,14,13,0,0.05970149253731343,0.029850746268656716,134,1,0
1,2,1,0,0.0,0.0,20,1,1
7,19,15,0,0.00625,0.025,160,1,1
1,3,2,0,0.5,0.0,42,1,0
3,10,9,0,0.0,0.023255813953488372,86,1,1
3,9,8,0,0.0,0.015151515151515152,66,1,0
3,10,8,0,0.012987012987012988,0.025974025974025976,77,1,1
3,7,6,0,0.03508771929824561,0.017543859649122806,57,1,1
0,1,0,0,0.0,0.0,7,1,1
4,13,11,0,0.00980392156862745,0.0196078431372549,102,1,1
6,28,11,0,0.046511627906976744,0.003875968992248062,258,1,1
3,11,7,0,0.07777777777777778,0.0,90,1,1
4,14,11,0,0.018518518518518517,0.024691358024691357,162,1,1
3,7,6,0,0.015151515151515152,0.015151515151515152,66,1,1
5,14,10,0,0.03597122302158273,0.007194244604316547,139,1,1
0,2,1,0,0.0,0.09090909090909091,11,1,1
2,8,7,0,0.0,0.0,66,1,0
3,4,3,0,0.0,0.0,52,1,1
3,10,8,0,0.0410958904109589,0.0547945205479452,73,1,1
2,8,7,0,0.05660377358490566,0.03773584905660377,53,1,0
1,3,2,0,0.0,0.041666666666666664,24,1,1
4,11,8,0,0.022988505747126436,0.022988505747126436,87,1,1
1,4,3,0,0.047619047619047616,0.0,42,1,1
4,11,7,0,0.03333333333333333,0.022222222222222223,90,1,1
3,7,6,0,0.03508771929824561,0.05263157894736842,57,1,0
1,3,2,0,0.0,0.0,27,1,1
0,9,7,0,0.057692307692307696,0.07692307692307693,52,1,0
6,20,12,0,0.022222222222222223,0.0,180,1,1
4,20,10,0,0.07017543859649122,0.017543859649122806,228,1,1
4,8,7,0,0.02702702702702703,0.0,74,1,1
0,1,0,0,0.0,0.0,7,1,1
4,8,7,0,0.05970149253731343,0.014925373134328358,67,1,1
4,45,14,0,0.005,0.02,400,0,0
0,2,1,0,0.0,0.09090909090909091,11,1,1
1,4,3,0,0.05128205128205128,0.02564102564102564,39,1,0
2,7,5,0,0.0,0.04838709677419355,62,1,1
2,5,3,0,0.02,0.0,50,1,1
4,10,8,0,0.023255813953488372,0.0,86,1,1
3,11,10,0,0.0,0.01834862385321101,109,1,1
0,4,3,0,0.0,0.04,25,1,1
1,5,4,0,0.0,0.06060606060606061,33,1,1
3,6,5,0,0.0,0.0,61,1,0
5,29,14,0,0.014336917562724014,0.007168458781362007,279,1,1
4,13,11,0,0.02857142857142857,0.05714285714285714,105,1,0
6,11,9,0,0.018867924528301886,0.009433962264150943,106,1,1
2,8,5,0,0.07462686567164178,0.029850746268656716,67,1,1
7,18,18,0,0.0,0.0175,400,0,0
2,6,4,0,0.0,0.02040816326530612,49,1,1
3,4,4,0,0.0,0.05128205128205128,39,1,0
4,9,8,0,0.05063291139240506,0.05063291139240506,79,1,0
3,9,7,0,0.04794520547945205,0.0136986301369863,146,1,0
4,16,11,0,0.0,0.02158273381294964,139,1,1
1,1,1,0,0.0,0.0,400,0,0
4,10,9,0,0.0,0.01282051282051282,78,1,0
1,6,4,0,0.06382978723404255,0.0,47,1,1
3,7,6,0,0.07407407407407407,0.018518518518518517,54,1,0
6,30,14,0,0.013937282229965157,0.010452961672473868,287,1,0
3,14,6,0,0.15126050420168066,0.025210084033613446,119,1,1
5,17,12,0,0.01948051948051948,0.006493506493506494,154,1,1
5,34,13,0,0.017605633802816902,0.01056338028169014,284,1,1
4,12,11,0,0.02197802197802198,0.01098901098901099,91,1,1
7,20,19,1,0.0,0.005154639175257732,388,0,0
4,18,15,0,0.01935483870967742,0.012903225806451613,155,1,0
5,15,12,0,0.0234375,0.03125,128,1,1
1,6,5,0,0.0,0.06976744186046512,43,1,1
7,26,11,0,0.02464788732394366,0.0035211267605633804,284,1,1
4,12,11,0,0.03,0.05,100,1,1
1,3,2,0,0.0,0.0,27,1,1
2,4,3,0,0.0,0.0,38,1,1
5,30,12,0,0.01,0.016666666666666666,300,1,1
2,6,5,0,0.0,0.02040816326530612,49,1,1
1,6,4,0,0.0,0.07317073170731707,41,1,1
1,5,4,0,0.0,0.03125,32,1,1
3,10,9,0,0.0,0.012048192771084338,83,1,1
6,10,9,0,0.016129032258064516,0.016129032258064516,124,1,1
4,8,4,0,0.12149532710280374,0.0,107,1,0
5,26,13,0,0.014634146341463415,0.01951219512195122,205,1,1
6,28,13,0,0.002824858757062147,0.00847457627118644,354,1,0
0,2,1,0,0.0,0.09090909090909091,11,1,1
4,11,9,0,0.0,0.020202020202020204,99,1,0
6,16,11,0,0.023622047244094488,0.047244094488188976,127,1,1
2,2,1,0,0.0,0.043478260869565216,23,1,1
