crate density,0.2,policy:,SOFTMAX,training parameter:,30,play parameter: ,1,cooling: ,False,update period: ,500,weight auxiliary rewards: ,9,6,15,3,GRADIENT BOOST learning rate: ,0.1,number of estimators: ,150,depth: ,4,gamma,0.95,learning rate for Q-learning: ,0.5
rewards:,coin collected,160,killed opponent,50,crate destroyed,40,invalid action,-40,wait,-2,placed bomb,-6,moved,-1,killed self,-260,got killed,-260,agent next to crate,70
coins,bombs,crates,kills,invalids,waited,steps,gotkilled,killedself
8,24,24,0,0.0,0.027131782945736434,258,0,0
1,2,2,0,0.0,0.005,400,0,0
8,20,20,0,0.0,0.015,400,0,0
8,24,24,0,0.0,0.03543307086614173,254,0,0
8,18,18,0,0.0,0.015306122448979591,196,0,0
9,25,25,0,0.0,0.06278026905829596,223,0,0
9,15,15,0,0.0,0.028735632183908046,174,0,0
9,24,24,0,0.0,0.0735930735930736,231,0,0
9,16,16,0,0.0,0.031088082901554404,193,0,0
9,22,22,0,0.0,0.03167420814479638,221,0,0
8,16,16,0,0.0,0.02364864864864865,296,0,0
9,23,23,0,0.0,0.04285714285714286,210,0,0
8,20,20,0,0.0,0.037815126050420166,238,0,0
8,14,14,0,0.0,0.0440251572327044,159,0,0
8,17,17,0,0.0,0.030303030303030304,264,0,0
a,t, ,t,h,i,s, ,p,o,i,n,t, ,t,h,e, ,m,o,d,e,l, ,i,s, ,s,a,v,e,d, ,i,n, ,a,g,e,n,t,_,d,o,e,s,_,n,o,t,_,k,i,l,l,_,h,i,m,s,e,l,f,_,m,o,d,e,l,.,p,t
9,18,18,0,0.0,0.22443181818181818,352,0,0
8,15,14,0,0.0,0.028409090909090908,176,1,1
3,5,4,0,0.0,0.0625,48,1,1
9,23,23,0,0.0,0.04411764705882353,204,0,0
9,22,22,0,0.0,0.039603960396039604,202,0,0
9,17,17,0,0.0,0.058823529411764705,187,0,0
9,30,30,0,0.0,0.04633204633204633,259,0,0
0,1,1,0,0.0,0.0,400,0,0
9,21,21,0,0.0,0.03414634146341464,205,0,0
9,23,23,0,0.0,0.045,200,0,0
9,21,21,0,0.0,0.06,200,0,0
0,3,3,0,0.9525,0.0025,400,0,0
9,21,21,0,0.0,0.045871559633027525,218,0,0
9,25,25,0,0.0,0.06493506493506493,231,0,0
4,9,8,0,0.0,0.024691358024691357,81,1,1
8,18,18,0,0.0,0.023923444976076555,209,0,0
9,19,19,0,0.0,0.03139013452914798,223,0,0
8,20,20,0,0.009950248756218905,0.05970149253731343,201,0,0
8,17,17,0,0.5875,0.0175,400,0,0
8,13,13,0,0.5675,0.0175,400,0,0
8,17,17,0,0.0,0.031413612565445025,191,0,0
5,12,12,0,0.0,0.015,400,0,0
3,7,7,0,0.0,0.005,400,0,0
8,17,17,0,0.0,0.024630541871921183,203,0,0
9,19,19,0,0.0,0.02857142857142857,210,0,0
6,12,12,0,0.715,0.01,400,0,0
8,23,23,0,0.0,0.03619909502262444,221,0,0
8,21,21,0,0.0,0.03225806451612903,217,0,0
8,18,18,0,0.0,0.0225,400,0,0
9,17,17,0,0.0,0.031914893617021274,188,0,0
a,t, ,t,h,i,s, ,p,o,i,n,t, ,t,h,e, ,m,o,d,e,l, ,i,s, ,s,a,v,e,d, ,i,n, ,a,g,e,n,t,_,d,o,e,s,_,n,o,t,_,k,i,l,l,_,h,i,m,s,e,l,f,_,m,o,d,e,l,.,p,t
1,2,1,0,0.0,0.04,25,1,1
2,5,5,0,0.7975,0.0025,400,0,0
4,10,9,0,0.0,0.05,80,1,1
1,2,2,0,0.0,0.0025,400,0,0
9,17,16,0,0.0,0.011428571428571429,175,1,1
1,3,2,0,0.0,0.045454545454545456,22,1,1
0,3,2,0,0.047619047619047616,0.0,21,1,1
2,7,7,0,0.0,0.005,400,0,0
2,4,3,0,0.0,0.05263157894736842,38,1,1
5,10,9,0,0.0,0.0072992700729927005,137,1,1
0,2,1,0,0.0,0.0,12,1,1
3,9,8,0,0.0,0.015267175572519083,131,1,1
6,14,13,0,0.0,0.03389830508474576,118,1,1
1,3,2,0,0.0,0.0,23,1,1
9,18,18,0,0.025,0.0075,400,0,0
3,12,11,0,0.0,0.03225806451612903,93,1,1
4,10,9,0,0.0,0.022222222222222223,90,1,1
9,20,20,0,0.0,0.041884816753926704,191,0,0
8,19,19,0,0.0,0.0225,400,0,0
2,3,3,0,0.0,0.0025,400,0,0
0,2,1,0,0.0,0.09090909090909091,11,1,1
2,3,3,0,0.0,0.0,400,0,0
9,21,21,0,0.0,0.0175,400,0,0
3,10,9,0,0.0,0.01098901098901099,273,1,1
5,11,11,0,0.0,0.0075,400,0,0
6,15,14,0,0.0,0.025423728813559324,118,1,1
2,8,8,0,0.0,0.01,400,0,0
6,12,12,0,0.0,0.0125,400,0,0
3,7,6,0,0.0,0.03508771929824561,57,1,1
3,5,4,0,0.0,0.0,43,1,1
9,18,18,0,0.0,0.04081632653061224,196,0,0
9,19,19,0,0.0,0.014184397163120567,282,0,0
9,19,19,0,0.0,0.055,400,0,0
0,2,2,0,0.0,0.0,400,0,0
0,1,1,0,0.0,0.0,400,0,0
9,18,18,0,0.0,0.02304147465437788,217,0,0
8,16,16,0,0.0,0.01,400,0,0
6,11,10,0,0.0,0.009375,320,1,1
9,20,20,0,0.0,0.010526315789473684,380,0,0
2,4,4,0,0.0,0.0,400,0,0
5,11,10,0,0.0,0.056074766355140186,107,1,1
1,2,1,0,0.0,0.0,20,1,1
0,4,4,0,0.0,0.0,400,0,0
0,2,1,0,0.0,0.07692307692307693,13,1,1
0,2,1,0,0.0,0.0,12,1,1
3,8,8,0,0.0,0.0,400,0,0
8,18,17,0,0.0,0.01935483870967742,155,1,1
0,1,0,0,0.0,0.0,7,1,1
4,9,8,0,0.0,0.025974025974025976,77,1,1
8,21,21,0,0.0,0.025,200,0,0
6,12,11,0,0.0,0.038461538461538464,104,1,1
1,4,3,0,0.0,0.037037037037037035,27,1,1
5,13,13,0,0.0,0.74,400,0,0
6,16,15,0,0.0,0.015,400,0,0
0,1,0,0,0.0,0.0,7,1,1
4,12,11,0,0.0,0.047619047619047616,84,1,1
0,2,1,0,0.0,0.0,12,1,1
0,2,1,0,0.0,0.0,16,1,1
0,3,3,0,0.0,0.0075,400,0,0
2,4,3,0,0.0,0.024390243902439025,41,1,1
7,14,13,0,0.007518796992481203,0.045112781954887216,133,1,1
1,4,3,0,0.0,0.0,28,1,1
0,2,2,0,0.96,0.005,400,0,0
7,15,14,0,0.0,0.017241379310344827,290,1,1
8,18,18,0,0.0,0.031914893617021274,282,0,0
3,8,7,0,0.014285714285714285,0.04285714285714286,70,1,1
2,8,7,0,0.0,0.05454545454545454,55,1,1
3,6,5,0,0.0,0.02040816326530612,49,1,1
2,6,5,0,0.0,0.022222222222222223,45,1,1
6,11,10,0,0.0,0.043010752688172046,93,1,1
1,4,3,0,0.0,0.03225806451612903,31,1,1
3,9,8,0,0.0,0.0641025641025641,78,1,1
5,15,14,0,0.007751937984496124,0.023255813953488372,129,1,1
4,13,13,0,0.0,0.015,400,0,0
8,18,18,0,0.005,0.0175,400,0,0
8,24,24,0,0.0,0.008955223880597015,335,0,0
9,19,19,0,0.0,0.015151515151515152,198,0,0
1,3,3,0,0.0,0.0,400,0,0
8,22,22,0,0.0,0.02403846153846154,208,0,0
8,22,22,0,0.0,0.005025125628140704,199,0,0
3,9,9,0,0.0,0.005,400,0,0
8,14,13,0,0.0,0.007633587786259542,131,1,1
1,3,2,0,0.0,0.0,25,1,1
8,20,20,0,0.0,0.006872852233676976,291,0,0
4,10,9,0,0.0,0.060240963855421686,83,1,1
1,2,1,0,0.0,0.1111111111111111,18,1,1
9,21,21,0,0.0,0.01015228426395939,197,0,0
4,5,4,0,0.0,0.03773584905660377,53,1,1
0,2,1,0,0.0,0.0,16,1,1
4,7,6,0,0.0,0.04838709677419355,62,1,1
4,8,7,0,0.0,0.02040816326530612,98,1,1
8,21,21,0,0.0,0.0225,400,0,0
5,13,13,0,0.0,0.01,400,0,0
6,19,19,0,0.0,0.0125,400,0,0
8,19,18,0,0.0,0.0335195530726257,179,1,1
9,19,19,0,0.0,0.04060913705583756,197,0,0
4,8,7,0,0.0,0.02702702702702703,74,1,1
6,14,14,0,0.0,0.01,400,0,0
0,1,0,0,0.0,0.0,9,1,1
8,19,19,0,0.0,0.0125,400,0,0
5,10,10,0,0.0,0.005,400,0,0
8,21,21,0,0.0,0.01951219512195122,205,0,0
3,10,9,0,0.0,0.07692307692307693,91,1,1
2,3,3,0,0.0,0.0025,400,0,0
0,1,1,0,0.0,0.0,400,0,0
3,7,6,0,0.0,0.03076923076923077,65,1,1
3,9,8,0,0.0,0.029850746268656716,67,1,1
3,7,6,0,0.0,0.0,125,1,1
5,10,9,0,0.0,0.023255813953488372,86,1,1
8,19,19,0,0.0,0.024390243902439025,164,0,0
8,20,20,0,0.0,0.04519774011299435,177,0,0
8,22,22,0,0.0,0.0223463687150838,179,0,0
2,4,3,0,0.0,0.024390243902439025,41,1,1
5,11,10,0,0.0,0.042105263157894736,95,1,1
0,2,1,0,0.0,0.0,12,1,1
8,21,21,0,0.0,0.0,196,0,0
3,8,7,0,0.0,0.01818181818181818,55,1,1
8,22,22,0,0.0,0.00823045267489712,243,0,0
8,18,18,0,0.0,0.011494252873563218,174,0,0
1,5,4,0,0.0,0.0,47,1,1
5,18,17,0,0.0,0.0072992700729927005,137,1,1
6,14,13,0,0.0,0.008695652173913044,115,1,1
8,15,15,0,0.0,0.0025,400,0,0
9,17,17,0,0.0,0.0025,400,0,0
0,1,0,0,0.0,0.0,9,1,1
9,23,23,0,0.0,0.013054830287206266,383,0,0
1,3,2,0,0.0,0.05,20,1,1
9,22,22,0,0.0,0.021505376344086023,186,0,0
8,16,16,0,0.0,0.040268456375838924,149,0,0
0,3,2,0,0.0,0.0,19,1,1
8,19,19,0,0.0,0.030927835051546393,194,0,0
2,6,5,0,0.0,0.0,58,1,1
9,22,22,0,0.0,0.020618556701030927,194,0,0
4,13,12,0,0.12903225806451613,0.008064516129032258,124,1,1
5,12,11,0,0.0,0.02654867256637168,113,1,1
crate density,0.2,policy:,SOFTMAX,training parameter:,30,play parameter: ,1,cooling: ,False,update period: ,500,weight auxiliary rewards: ,9,6,15,3,GRADIENT BOOST learning rate: ,0.1,number of estimators: ,150,depth: ,4,gamma,0.95,learning rate for Q-learning: ,0.5
rewards:,coin collected,160,killed opponent,50,crate destroyed,40,invalid action,-40,wait,-2,placed bomb,-6,moved,-1,killed self,-260,got killed,-260,agent next to crate,70
coins,bombs,crates,kills,invalids,waited,steps,gotkilled,killedself
crate density,0.2,policy:,SOFTMAX,training parameter:,20,play parameter: ,1,cooling: ,False,update period: ,500,weight auxiliary rewards: ,9,6,15,3,GRADIENT BOOST learning rate: ,0.1,number of estimators: ,150,depth: ,4,gamma,0.95,learning rate for Q-learning: ,0.5
rewards:,coin collected,160,killed opponent,50,crate destroyed,40,invalid action,-40,wait,-6,placed bomb,-6,moved,-1,killed self,-260,got killed,-260,agent next to crate,70
coins,bombs,crates,kills,invalids,waited,steps,gotkilled,killedself
0,2,1,0,0.0,0.0,314,1,1
5,10,9,0,0.0,0.0,82,1,1
8,19,19,0,0.0,0.023121387283236993,173,0,0
4,7,6,0,0.0,0.03773584905660377,53,1,1
0,1,0,0,0.0,0.2857142857142857,7,1,1
8,19,19,0,0.0,0.02127659574468085,188,0,0
6,13,13,0,0.0,0.0025,400,0,0
8,19,19,0,0.0,0.03825136612021858,183,0,0
3,4,3,0,0.0,0.0,38,1,1
8,22,22,0,0.0,0.026041666666666668,192,0,0
9,19,19,0,0.0,0.010810810810810811,185,0,0
2,7,7,0,0.0,0.0025,400,0,0
9,22,22,0,0.0,0.01,400,0,0
9,17,17,0,0.0,0.025157232704402517,159,0,0
2,9,8,0,0.0,0.05357142857142857,56,1,1
1,2,1,0,0.0,0.0,18,1,1
5,11,11,0,0.0,0.0075,400,0,0
9,22,22,0,0.0,0.01,400,0,0
9,16,16,0,0.0,0.0025,400,0,0
9,20,20,0,0.0,0.015384615384615385,195,0,0
7,19,18,0,0.0,0.027210884353741496,147,1,1
9,16,16,0,0.0,0.0075,400,0,0
2,3,2,0,0.0,0.0,31,1,1
0,1,1,0,0.0,0.0,400,0,0
6,18,17,0,0.0,0.02857142857142857,140,1,1
9,21,21,0,0.0,0.029556650246305417,203,0,0
8,20,20,0,0.0,0.011049723756906077,181,0,0
1,2,1,0,0.0,0.0,20,1,1
9,21,21,0,0.0,0.020512820512820513,195,0,0
4,9,9,0,0.0,0.0,400,0,0
1,4,3,0,0.0,0.0,32,1,1
5,8,7,0,0.0,0.012658227848101266,79,1,1
9,22,22,0,0.0,0.02564102564102564,195,0,0
3,6,5,0,0.0,0.0,50,1,1
8,20,20,0,0.0,0.010050251256281407,199,0,0
9,21,21,0,0.0,0.010582010582010581,189,0,0
9,16,16,0,0.0,0.012269938650306749,163,0,0
8,23,23,0,0.0048543689320388345,0.009708737864077669,206,0,0
9,20,20,0,0.005780346820809248,0.011560693641618497,173,0,0
7,19,18,0,0.0,0.011976047904191617,167,1,1
2,6,5,0,0.057692307692307696,0.0,52,1,1
5,13,12,0,0.0,0.0,111,1,1
8,21,21,0,0.0,0.01098901098901099,182,0,0
9,21,21,0,0.0,0.026737967914438502,187,0,0
9,19,19,0,0.0,0.011834319526627219,169,0,0
7,11,10,0,0.0,0.031914893617021274,94,1,1
9,20,20,0,0.0,0.016483516483516484,182,0,0
9,21,21,0,0.0,0.004807692307692308,208,0,0
8,19,19,0,0.0,0.01694915254237288,177,0,0
8,23,23,0,0.0,0.008064516129032258,248,0,0
9,23,23,0,0.0,0.013953488372093023,215,0,0
8,19,19,0,0.0,0.005714285714285714,175,0,0
5,13,12,0,0.0,0.01020408163265306,98,1,1
9,20,20,0,0.0,0.0055248618784530384,181,0,0
5,15,14,0,0.0,0.016,125,1,1
9,23,23,0,0.0,0.022026431718061675,227,0,0
9,19,19,0,0.0,0.005,400,0,0
9,18,18,0,0.0,0.545,400,0,0
2,2,1,0,0.0,0.0,22,1,1
4,13,13,0,0.0,0.0075,400,0,0
crate density,0.2,policy:,SOFTMAX,training parameter:,20,play parameter: ,1,cooling: ,False,update period: ,500,weight auxiliary rewards: ,9,6,15,3,GRADIENT BOOST learning rate: ,0.1,number of estimators: ,150,depth: ,4,gamma,0.95,learning rate for Q-learning: ,0.5
rewards:,coin collected,160,killed opponent,50,crate destroyed,40,invalid action,-40,wait,-6,placed bomb,-6,moved,-1,killed self,-260,got killed,-260,agent next to crate,70
coins,bombs,crates,kills,invalids,waited,steps,gotkilled,killedself
8,25,25,0,0.0,0.023148148148148147,216,0,0
9,23,23,0,0.0,0.01990049751243781,201,0,0
8,23,23,0,0.0,0.01568627450980392,255,0,0
2,4,4,0,0.0,0.0,400,0,0
8,18,18,0,0.0,0.011834319526627219,169,0,0
8,20,20,0,0.1025,0.0075,400,0,0
8,21,21,0,0.0,0.005494505494505495,182,0,0
8,20,20,0,0.0,0.0111731843575419,179,0,0
8,22,22,0,0.0,0.02040816326530612,196,0,0
3,5,4,0,0.0,0.06521739130434782,46,1,1
1,2,2,0,0.0,0.0025,400,0,0
3,10,9,0,0.0,0.022222222222222223,90,1,1
9,16,16,0,0.0,0.006756756756756757,148,0,0
9,22,22,0,0.0,0.018433179723502304,217,0,0
0,2,2,0,0.0,0.0,400,0,0
8,14,14,0,0.0,0.0025,400,0,0
1,6,5,0,0.0,0.05263157894736842,38,1,1
8,18,18,0,0.0,0.0,185,0,0
9,17,17,0,0.0,0.0,173,0,0
9,21,21,0,0.0,0.0,207,0,0
8,25,25,0,0.004273504273504274,0.01282051282051282,234,0,0
0,2,1,0,0.0,0.0,14,1,1
7,19,19,0,0.5975,0.0,400,0,0
9,22,22,0,0.0,0.010416666666666666,192,0,0
3,7,6,0,0.0,0.05172413793103448,58,1,1
8,19,19,0,0.0,0.024242424242424242,165,0,0
0,1,0,0,0.0,0.0,7,1,1
6,10,10,0,0.0,0.0075,400,0,0
8,21,21,0,0.0,0.01,400,0,0
9,18,18,0,0.0,0.005649717514124294,177,0,0
9,23,23,0,0.0,0.0026455026455026454,378,0,0
3,9,8,0,0.04054054054054054,0.0,74,1,1
9,20,20,0,0.0,0.0273224043715847,183,0,0
2,7,6,0,0.0392156862745098,0.0392156862745098,51,1,1
3,5,4,0,0.0,0.020833333333333332,48,1,1
1,2,1,0,0.0,0.0,22,1,1
7,11,10,0,0.028037383177570093,0.037383177570093455,107,1,1
6,11,11,0,0.0,0.0,400,0,0
6,11,10,0,0.7425,0.0075,400,0,0
1,5,4,0,0.0,0.02631578947368421,38,1,1
0,3,3,0,0.0,0.005,400,0,0
8,19,19,0,0.0,0.0025,400,0,0
1,2,1,0,0.0,0.0,20,1,1
3,6,6,0,0.0,0.0,400,0,0
9,24,24,0,0.0,0.018518518518518517,216,0,0
7,15,14,0,0.0,0.009569377990430622,209,1,1
4,10,9,0,0.0,0.0,88,1,1
9,20,20,0,0.0,0.02040816326530612,245,0,0
3,5,4,0,0.0,0.0,41,1,1
9,19,19,0,0.0,0.005494505494505495,182,0,0
4,8,8,0,0.0,0.0,400,0,0
8,17,17,0,0.0,0.006060606060606061,165,0,0
9,24,24,0,0.0,0.013574660633484163,221,0,0
2,11,10,0,0.0,0.0,85,1,1
8,19,19,0,0.005555555555555556,0.011111111111111112,180,0,0
9,20,20,0,0.0,0.005076142131979695,197,0,0
3,6,5,0,0.0,0.0,62,1,1
8,16,16,0,0.0,0.021551724137931036,232,0,0
9,19,19,0,0.0,0.014778325123152709,203,0,0
8,18,18,0,0.0,0.00558659217877095,179,0,0
